{
   "test_gavs": [
      {
         "artifactId": "jira-webdriver-tests",
         "groupId": "com.atlassian.jira",
         "version": "1001.0.0-QR20160825151246",
	 "ignoreTestArtifact": true
      }
   ]
}
